<?xml version="1.0" encoding="UTF-8"?>
<svg width="245px" height="65px" viewBox="0 0 245 65" version="1.1" xmlns="http://www.w3.org/2000/svg" xmlns:xlink="http://www.w3.org/1999/xlink">
    <!-- Generator: Sketch 52.4 (67378) - http://www.bohemiancoding.com/sketch -->
    <title>Sign In V2 Copy 2</title>
    <desc>Created with Sketch.</desc>
    <defs>
        <polygon id="path-1" points="0.0317421709 0.239697433 24.2775658 0.239697433 24.2775658 39.6142857 0.0317421709 39.6142857"></polygon>
    </defs>
    <g id="Sign-In-V2-Copy-2" stroke="none" stroke-width="1" fill="none" fill-rule="evenodd">
        <g id="Logo-One-Line---White" transform="translate(3.000000, 3.000000)">
            <path d="M2.57440531,6.06915052 C1.05110966,6.45390182 0.289461842,6.39066971 0.0355792341,5.55471982 C-0.154832722,4.71876993 0.416403145,3.88282005 1.81275749,3.49699702 C7.96941072,1.82509724 13.6172409,1.2463627 19.5210694,0.539020489 C29.6118452,-0.296929401 39.5767375,0.0888936251 49.2866894,0.0888936251 C50.1118079,0.153197463 50.8099851,0.281805138 51.3812209,0.410412813 C53.4757524,0.860539677 53.2853405,1.88940108 51.2542796,1.88940108 C40.7816221,1.88940108 32.3410832,2.46813562 23.7725452,2.72535097 C18.5055389,8.70560787 10.1898257,33.1399944 10.1898257,44.5850058 C10.1898257,46.9010157 7.77899876,46.8356401 7.65205746,45.0351327 C6.50958573,35.8396839 11.9680618,14.2346662 16.5368909,6.58250949 C17.3620094,5.36180831 18.1236572,4.1400354 19.2026583,3.23978167 C19.2026583,3.17547783 19.0767748,3.17547783 18.885305,3.23978167 C12.8566509,3.68990853 7.84141157,4.84630588 2.57440531,6.06915052" id="Fill-1" fill="#FFFFFF"></path>
            <path d="M28.4707827,23.3607775 C28.0367652,19.8677788 23.510583,23.3607775 23.6965905,26.3372135 C23.8205955,28.4077778 24.8126354,29.7655071 26.9827228,30.478342 C28.0367652,28.1489572 28.7187926,25.8842776 28.4707827,23.3607775 M22.5185431,29.507765 C20.4104582,32.4842011 19.9154716,37.0124819 21.1544882,37.6606116 C22.2085306,38.2429578 24.8756713,35.4606371 26.1146878,32.1606754 C24.5646254,31.7724446 23.4485805,30.8665728 22.5185431,29.507765 M32.6869524,29.6371753 C33.057934,30.995983 30.8268775,32.8713534 27.7267527,32.4842011 C26.5487053,34.9419177 25.1226479,37.1418921 23.2005705,38.7595204 C21.2784932,40.4429323 19.2944133,39.4076502 18.2414043,37.6606116 C16.3182935,34.2959448 19.2944133,26.4666238 21.4645007,26.2078033 C21.7755465,26.1430981 21.8365156,25.8195725 21.8995515,25.4960468 C22.7045506,22.3254954 25.4326604,19.1560223 28.4707827,20.5784568 C29.2768151,20.9666876 29.7728351,21.8725594 29.8968401,23.1666621 C30.2068525,25.8195725 29.2768151,28.6018931 28.3467777,30.8665728 C30.4548625,31.2548036 32.2529349,29.8312907 32.6869524,29.6371753" id="Fill-3" fill="#FFFFFF"></path>
            <path d="M45.2689336,26.1491445 C43.8139691,28.9693434 42.6109877,34.2807181 42.2957454,37.2331822 C42.1059674,38.6093956 42.422264,38.8728328 43.1181166,37.9546285 C45.4587115,35.2656016 46.8504166,31.3960263 48.6838827,28.4446553 C49.6960318,26.9361767 50.8990133,27.788795 50.0766421,29.2305944 C48.3675861,32.1174725 46.5973793,36.1838059 44.635286,38.7416608 C44.0670064,39.5275999 43.1181166,40.4458042 42.1692267,40.4458042 C37.5512962,40.8393204 40.7775216,30.870245 41.0938183,29.1661015 L37.6145555,33.6904439 C34.578108,37.6256053 33.5026995,37.7567773 31.7957521,37.1665031 C30.2142691,36.5106429 30.0877504,34.3463042 30.2764741,32.9689977 C30.7192893,29.8875477 32.2385674,25.7556283 33.3772352,23.1321875 C33.8822555,21.9516391 35.2750149,21.7537879 36.2861097,22.0172251 C37.2982589,22.2795692 37.5512962,22.4763272 36.856498,24.1815638 C36.2861097,25.5588703 32.617069,34.2807181 33.5659589,35.2656016 C34.3250707,36.0526338 41.7896708,25.4276982 41.5366335,25.5588703 C42.422264,23.7880477 46.2810827,24.1815638 45.2689336,26.1491445" id="Fill-5" fill="#FFFFFF"></path>
            <path d="M63.1563886,29.2599102 C64.0937329,28.2990357 65.283399,29.003677 64.1573347,30.0916005 C61.3421739,32.8461074 59.9648304,33.7429236 59.0900453,33.9991568 C57.4635079,34.5756815 56.024648,33.6799329 56.6502393,31.0535426 C57.1507123,28.6833855 57.2132714,27.7865693 55.3990567,28.9385511 C52.6464551,30.7332511 50.1451326,33.2945155 48.4549935,38.5472961 C48.3298752,39.1238208 48.3298752,39.380054 48.0170796,39.5092382 C47.4540474,39.7644038 46.3905423,39.5722289 46.2028649,38.739471 C45.7034345,37.0109645 49.1441866,25.800762 50.8947995,23.3024883 C51.3327134,22.6619053 52.272143,22.597847 53.084369,23.0462551 C53.9601968,23.4946632 53.7099603,24.1993045 53.3971646,25.0320624 C52.8341325,26.8256948 52.3962186,27.8506276 51.5829499,30.2197171 C53.6474011,28.6182596 55.6492932,26.5054033 57.5260671,25.7367037 C59.1526044,24.9669365 60.2161096,25.5445288 60.2161096,27.2741029 C60.2161096,28.4271523 59.9033139,29.4520851 59.6530774,30.9884167 C59.1526044,33.4226321 62.1554426,30.3489013 63.1563886,29.2599102" id="Fill-7" fill="#FFFFFF"></path>
            <path d="M119.304087,19.9146151 C121.862653,10.2860376 113.356488,1.48641054 103.249087,3.39937295 C95.7663486,15.1959745 91.2899247,28.0117599 87.1962195,41.5300276 C99.4123048,38.9156457 116.041916,32.8579314 119.304087,19.9146151 M85.4691876,20.1059114 C88.9221853,20.8073309 86.8753327,23.4217129 85.4041574,23.4844155 C83.1025143,23.6119464 80.9277334,22.1464046 80.2870259,19.8497869 C78.7529525,14.4307895 85.2122649,8.50060605 88.9872155,5.75975602 C95.5104921,1.35887971 102.546548,-0.426551878 110.286209,1.8052376 C116.233808,3.59173195 120.58337,7.28906319 122.054546,13.4105429 C124.357255,22.4014663 117.64102,30.179784 111.3736,35.0897208 C103.953759,40.7648427 94.5510299,43.3792246 86.0448649,45.1646562 C85.8519064,46.1849028 85.4041574,47.6515073 85.0214386,48.4804577 C84.765582,49.3083453 84.1899047,49.8822341 83.3573048,49.6920006 C82.3989087,49.3731735 82.2070163,48.671754 82.2709804,47.906569 C82.3989087,47.0776186 82.6547653,46.6312607 82.5908011,45.9298412 C79.9682713,45.9298412 78.1772752,45.9936066 76.1943868,45.1646562 C75.0419661,44.5907675 75.4268171,43.2516938 76.9619565,43.0593348 C78.497096,42.9328667 80.2241278,42.8691013 81.7582012,42.8691013 C83.0374841,42.8691013 83.422335,42.2952126 83.6781916,41.0836697 C85.2762291,33.6231163 87.5160402,26.2900937 90.0735399,19.0218993 C91.6086793,14.1119625 94.3602035,8.56437146 97.2375239,4.22832333 C93.3996753,5.18586729 87.9637892,9.2020256 85.4041574,12.7091234 C83.5502633,15.1959745 81.5673748,19.0856647 85.4691876,20.1059114" id="Fill-9" fill="#FFFFFF"></path>
            <path d="M127.583386,20.748434 C126.8808,22.2092851 124.065125,22.4633461 124.320998,20.748434 C124.450001,18.7159455 128.095133,19.1605523 127.583386,20.748434 M123.810317,37.7694667 C122.339044,39.3573483 120.611897,38.9773153 120.099084,37.1978293 C119.523369,34.9123383 121.570357,28.3702659 123.297504,24.4312608 C124.193061,22.9714683 127.072705,23.6701362 126.177148,25.76614 C125.28159,28.9408447 124.065125,32.116608 122.658886,37.0072835 C125.153653,34.8477644 127.456516,30.4662697 128.734817,28.6232684 C129.566407,27.3540216 130.654935,27.6070241 129.694343,29.1949058 C128.159102,31.8636055 125.664334,35.8640087 123.810317,37.7694667" id="Fill-11" fill="#FFFFFF"></path>
            <path d="M127.045776,41.2081336 C125.41738,43.3414959 124.603182,46.8324525 128.047866,45.6688003 C131.304657,44.4405008 134.811972,40.3030708 133.308837,35.9070514 C130.928874,37.523235 128.736802,38.9454765 127.045776,41.2081336 M129.112586,30.1534377 C127.045776,27.2453847 129.677305,23.3018967 133.434098,21.5564184 C134.68671,20.9745923 136.001953,20.7806503 136.940368,21.749283 C138.444547,23.172602 137.505088,25.6292011 136.502998,27.2453847 C136.189845,27.7625634 135.751431,28.2140174 135.313016,28.2140174 C133.559359,27.955428 137.066674,24.2069595 135.751431,22.97866 C132.306747,25.047375 130.991504,27.11609 133.747251,29.9605731 C134.436188,30.7352638 135.187755,31.511032 135.6888,32.6111143 C137.505088,31.7696213 139.697159,30.6059691 140.948728,29.4423169 C142.452906,28.0211528 143.329735,29.0555103 142.014492,30.2191625 C140.448726,31.6403266 138.194025,32.9332735 136.440367,33.967631 C137.75561,38.2343557 134.874602,43.6000853 131.116765,45.9909596 C129.677305,46.8970999 128.11154,47.3496313 126.607361,47.1556892 C123.037417,46.5727857 124.039506,42.5657278 125.730533,40.2395009 C127.48419,37.911119 130.240981,35.9070514 132.933053,34.1615731 C131.806746,32.0928581 130.114676,31.4463846 129.112586,30.1534377" id="Fill-13" fill="#FFFFFF"></path>
            <g id="Group-17" transform="translate(133.426573, 19.385714)">
                <mask id="mask-2" fill="white">
                    <use xlink:href="#path-1"></use>
                </mask>
                <g id="Clip-16"></g>
                <path d="M16.8540347,10.2793718 C20.6641532,3.72802548 15.2034418,6.93999459 12.0292247,12.1423139 C12.5381575,11.7568776 15.2679842,10.8575263 16.8540347,10.2793718 Z M16.0297963,11.9506664 C13.74436,12.8489471 11.522408,13.4271015 10.5701429,15.9324375 C12.6651262,15.8681981 14.7601095,14.0694954 16.0297963,11.9506664 Z M23.0120158,9.50849923 C24.4086713,9.18730232 24.9165461,10.4731606 23.1389845,10.7290475 C22.6956522,10.7932869 20.6641532,11.1144838 19.2040134,11.3072019 C16.4741867,16.8960282 11.4578656,19.7868004 8.91955002,16.3821131 C5.87230161,23.3199664 3.58686531,30.7064247 2.31717847,38.0939537 C2.06324111,40.2791633 0.0317421709,39.9568958 0.0317421709,38.0939537 C0.0317421709,30.5790166 5.93578595,9.76652741 12.0937671,1.02890077 C12.8555792,0.130620077 13.6808756,0.130620077 14.505114,0.387577606 C15.3938948,0.644535135 15.9028276,1.15737954 15.5208635,1.92825212 C14.5696564,3.66271544 12.9180055,6.16805135 11.4578656,9.57380927 C12.9825479,8.09523282 14.3157191,6.61772703 16.0297963,5.52672819 C19.71083,3.21303977 22.2512618,4.81902432 19.8377987,9.76652741 L23.0120158,9.50849923 Z" id="Fill-15" fill="#FFFFFF" mask="url(#mask-2)"></path>
            </g>
            <path d="M160.097008,37.4325886 C158.023742,39.4095839 155.00913,36.5392718 155.259388,34.1145546 C155.259388,32.3917293 155.636346,30.4774789 156.454134,28.8184619 C157.89809,25.6918529 160.788097,23.2033274 165.248759,23.3958159 C166.442458,23.3958159 167.698982,23.9052192 168.138766,24.4167495 C169.269638,25.6918529 168.074892,25.5642362 167.384851,25.8194696 C162.73571,27.1594449 160.411139,29.1375036 159.028962,32.6469627 C157.646785,36.1564217 158.463526,36.4116551 159.971356,35.0716798 C161.856143,33.3488545 165.374412,29.0747587 166.253979,27.7975283 C167.133546,26.074703 171.091599,26.2023197 170.085332,28.1165701 C168.640329,30.860329 167.824635,34.6888297 167.510504,37.5602053 C166.693762,45.1533986 176.61926,17.334023 177.437048,16.0567926 C173.981605,16.1854728 163.363972,16.2492811 159.971356,16.4407062 C160.285487,15.4197726 161.165054,15.0358591 161.981795,14.9731142 C164.243539,14.7178808 173.603601,14.5264558 178.002484,14.5264558 L179.94905,10.3789133 C181.017096,8.14562113 183.78145,2.78572004 186.1678,3.4238035 C186.985588,3.61522854 186.985588,4.18950366 186.482978,4.95520381 C186.357326,5.2104372 186.106021,5.59435075 186.043195,5.78471232 C184.849496,7.89038775 182.901883,11.9741219 181.771011,14.5264558 C186.2945,14.5264558 189.748895,14.6540725 193.205385,14.8454975 C194.838867,14.9731142 196.471302,15.1645392 198.041958,15.8026227 C196.785433,16.0567926 195.529956,16.1216644 194.273431,16.0567926 C189.748895,15.866431 185.414933,15.9291759 181.017096,15.9291759 C178.064263,23.4585608 175.112478,31.8174542 173.981605,39.9211141 L181.833837,29.1375036 C182.336447,28.5004836 183.592972,28.4356118 183.027536,29.7755871 C180.012924,34.178363 177.62448,37.6240137 174.357516,41.8981094 C172.78686,42.9839148 171.593161,40.1763475 171.593161,38.9629255 C171.593161,36.6668885 171.971166,34.0507463 172.598381,31.3069874 C170.77642,36.1564217 168.829854,41.1324093 167.384851,40.6868143 C162.798536,41.0696644 165.437238,32.2003042 165.750322,30.5423507 C163.739882,33.3488545 161.981795,35.7097633 160.097008,37.4325886" id="Fill-18" fill="#FFFFFF"></path>
            <path d="M182.350522,35.7999094 C181.343212,41.2825795 191.038572,33.5807334 194.564157,28.4255006 C195.193726,27.5117222 196.892512,27.0537452 196.201036,28.816032 C194.941898,31.6226369 186.569683,40.6287928 182.224609,39.5202927 C180.273995,39.0634035 179.58042,36.9747673 179.58042,35.4082901 C179.58042,30.1866995 182.540442,25.1620065 186.883418,22.6164811 C188.268469,21.7679726 189.779434,21.5058052 191.038572,22.8764728 C192.675451,24.835657 191.101529,27.0537452 189.968305,28.75185 C189.46465,29.4698187 188.45734,28.6854922 188.64621,28.0327934 C188.772124,27.1201029 189.717526,26.0094271 189.905348,24.7692993 C189.968305,24.3124102 189.527607,24.3787679 187.890728,25.8799752 C185.876108,27.7075319 182.854177,33.1902019 182.350522,35.7999094" id="Fill-20" fill="#FFFFFF"></path>
            <path d="M207.256939,3.42334646 C208.079972,3.61306737 208.079972,4.18223012 207.57349,4.94005978 C207.446869,5.19407501 207.192573,5.57351684 207.130318,5.76323776 C202.12881,14.4261056 198.521182,24.6710351 194.912499,36.3704916 C196.55751,33.3349569 200.990281,27.2638876 203.078464,25.0515309 C204.028117,23.9121514 205.420942,23.3429887 206.813767,23.8489111 C209.156246,24.5445545 207.383559,29.6670192 206.750457,32.9555151 C206.117355,35.9278094 206.307285,35.9899957 210.865622,28.9081355 C211.435414,28.0227712 213.018169,27.8330503 211.94084,29.8567401 C210.927877,31.690709 209.029625,34.4089881 207.446869,36.3704916 C206.117355,38.329887 203.395015,36.4969722 203.395015,34.6630033 C203.395015,32.323112 205.104391,27.8330503 204.597909,26.6947248 C203.774876,24.7975157 197.127302,36.05429 195.038065,39.7854681 C194.278342,40.7973129 193.203123,40.4800574 192.568966,40.0373753 C191.556002,39.3417319 191.112831,37.8872049 191.429382,36.87536 C195.101375,24.860756 195.861098,20.8776707 200.990281,10.3165397 C202.0655,8.10207505 204.85115,2.7909434 207.256939,3.42334646" id="Fill-22" fill="#FFFFFF"></path>
            <path d="M213.051012,30.770405 C215.615721,29.0327349 217.796633,26.6514832 217.989067,25.6217528 C218.05428,25.1701731 217.605269,25.2356039 215.936444,26.7158414 C214.847057,27.6812137 214.141468,28.8385878 213.051012,30.770405 M223.121693,28.4535115 C223.763138,27.5524974 225.429825,27.1663485 224.724236,28.9040186 C223.442415,31.6714192 215.231924,40.6161298 210.805956,39.5220412 C208.817477,39.0715341 208.111888,37.0120732 208.111888,35.4674775 C208.111888,30.3842561 211.254967,26.0722599 214.911201,23.4979337 C216.258235,22.5325615 217.861847,22.4038451 219.143667,23.7553664 C220.04169,24.7850968 219.720967,25.8781128 219.016447,26.9078432 C217.091044,29.8683182 214.847057,31.1554813 212.088845,32.5724333 C211.4474,33.8595964 211.062534,35.0169705 210.934245,35.8536265 C210.100367,41.3240695 219.33717,33.6654493 223.121693,28.4535115" id="Fill-24" fill="#FFFFFF"></path>
            <path d="M238.541004,29.2599102 C239.478348,28.2990357 240.668014,29.003677 239.54195,30.0916005 C236.726789,32.8461074 235.349446,33.7429236 234.474661,33.9991568 C232.848123,34.5756815 231.409263,33.6799329 232.034855,31.0535426 C232.535328,28.6833855 232.597887,27.7865693 230.783672,28.9385511 C228.03107,30.7332511 225.529748,33.2945155 223.839609,38.5472961 C223.714491,39.1238208 223.714491,39.380054 223.401695,39.5092382 C222.838663,39.7644038 221.775158,39.5722289 221.58748,38.739471 C221.08805,37.0109645 224.528802,25.800762 226.279415,23.3024883 C226.717329,22.6619053 227.656758,22.597847 228.468984,23.0462551 C229.344812,23.4946632 229.094576,24.1993045 228.78178,25.0320624 C228.218748,26.8256948 227.780834,27.8506276 226.967565,30.2197171 C229.032017,28.6182596 231.033909,26.5054033 232.910682,25.7367037 C234.53722,24.9669365 235.600725,25.5445288 235.600725,27.2741029 C235.600725,28.4271523 235.287929,29.4520851 235.037693,30.9884167 C234.53722,33.4226321 237.540058,30.3489013 238.541004,29.2599102" id="Fill-26" fill="#FFFFFF"></path>
        </g>
    </g>
</svg>