{
  "project_info": {
    "project_number": "548094729116",
    "firebase_url": "https://tour-dispatcher.firebaseio.com",
    "project_id": "tour-dispatcher",
    "storage_bucket": "tour-dispatcher.appspot.com"
  },
  "client": [
    {
      "client_info": {
        "mobilesdk_app_id": "1:548094729116:android:8b15cb61d9509191",
        "android_client_info": {
          "package_name": "com.example.tourdispatch"
        }
      },
      "oauth_client": [
        {
          "client_id": "548094729116-95ir89ptlhs77lrsv2f4g0oa3g8i55c0.apps.googleusercontent.com",
          "client_type": 3
        }
      ],
      "api_key": [
        {
          "current_key": "AIzaSyDJsnfDYZF7-IbCAWIoGg0gBiqwg7eeEVg"
        }
      ],
      "services": {
        "analytics_service": {
          "status": 1
        },
        "appinvite_service": {
          "status": 1,
          "other_platform_oauth_client": []
        },
        "ads_service": {
          "status": 2
        }
      }
    }
  ],
  "configuration_version": "1"
}